// Jest Snapshot v1, https://goo.gl/fbAQLP

exports[`ErrorHandler renders correctly 1`] = `
<div
  className="underConstructionContainer"
>
  <div
    className="row focusHeader"
  >
    <div
      className="col-md-12"
    >
      <h1>
        <span
          className="titleCapture"
        >
          MyKwaeriApp
        </span>
         is Under Construction
      </h1>
    </div>
  </div>
  <div
    className="focusContent"
  >
    <div
      className="ucWrap ucMessage"
    >
      <h1>
        Whoa!?
      </h1>
      <small>
        We apologize for any inconvenience. Check back often for updates, or 
        <a
          href="mailto:support@mmod.co"
        >
          Email Support
        </a>
         with any questions or concerns.
      </small>
    </div>
  </div>
</div>
`;
