// Jest Snapshot v1, https://goo.gl/fbAQLP

exports[`ErrorHandler renders correctly 1`] = `
<div
  className="errorHandlerContainer"
>
  <div
    className="row focusHeader"
  >
    <div
      className="col-md-12"
    >
      <h1>
        <span
          className="titleCapture"
        >
          MyKwaeriApp
        </span>
      </h1>
    </div>
  </div>
  <div
    className="focusContent"
  >
    <div
      className="errorWrap errorMessage"
    >
      <h1>
        Haxxed!?
      </h1>
      <small>
        Naw, you wouldn't do that right? :)
      </small>
      <p>
        You must have landed here by mistake! Click 
        <NavLink
          activeClassName="active"
          aria-current="page"
          to="/"
        >
          HERE
        </NavLink>
         to be returned to the main page.
      </p>
    </div>
  </div>
</div>
`;
